[gd_scene load_steps=5 format=2]

[ext_resource path="res://scenes/visualblocks/assetBlock.gd" type="Script" id=1]
[ext_resource path="res://scenes/misc/list_files.tscn" type="PackedScene" id=2]
[ext_resource path="res://scenes/misc/list_files.gd" type="Script" id=3]
[ext_resource path="res://scenes/visualblocks/text_filename.gd" type="Script" id=4]

[node name="assetBlock" type="VBoxContainer"]
anchor_right = 1.0
anchor_bottom = 1.0
size_flags_horizontal = 3
script = ExtResource( 1 )

[node name="text_filename" type="LineEdit" parent="."]
margin_right = 1024.0
margin_bottom = 24.0
script = ExtResource( 4 )

[node name="img_preview" type="TextureRect" parent="."]
margin_top = 28.0
margin_right = 1024.0
margin_bottom = 128.0
rect_min_size = Vector2( 0, 100 )
expand = true
stretch_mode = 6

[node name="list_files" parent="." instance=ExtResource( 2 )]
script = ExtResource( 3 )

[node name="timer" type="Timer" parent="."]
one_shot = true

[connection signal="focus_entered" from="text_filename" to="." method="_on_text_filename_focus_entered"]
[connection signal="focus_exited" from="text_filename" to="." method="_on_text_filename_focus_exited"]
[connection signal="gui_input" from="text_filename" to="." method="_on_text_filename_gui_input"]
[connection signal="text_changed" from="text_filename" to="." method="_on_text_filename_text_changed"]
[connection signal="focus_entered" from="list_files" to="." method="_on_text_filename_focus_entered"]
[connection signal="item_selected" from="list_files" to="." method="_on_list_files_item_selected"]
[connection signal="timeout" from="timer" to="." method="_on_timer_timeout"]
