[gd_scene load_steps=2 format=2]

[ext_resource path="res://scenes/visualblocks/alignBlock.gd" type="Script" id=1]

[node name="halignBlock" type="OptionButton"]
margin_right = 29.0
margin_bottom = 20.0
text = "left"
items = [ "left", null, false, 0, null, "center", null, false, 1, null, "right", null, false, 2, null ]
selected = 0
script = ExtResource( 1 )

[connection signal="item_selected" from="." to="." method="_on_halignBlock_item_selected"]
